{"count":1771896,"page":1,"first":1,"last":1,"hits":1,"carrier":0,"pageCount":100,"Items":[{"itemName":"【SALE／44%OFF】PUMA ユニセックス プーマ スマッシュ バルク V3 ロー スニーカー プーマ シューズ・靴 スニーカー ブラック【送料無料】","catchcopy":"PUMA ユニセックス シューズ・靴 プーマ","itemCode":"stylife:15383779","itemPrice":3998,"itemPriceBaseField":"item_price_min3","itemPriceMax1":3998,"itemPriceMax2":3998,"itemPriceMax3":3998,"itemPriceMin1":3998,"itemPriceMin2":3998,"itemPriceMin3":3998,"itemCaption":"PUMA（プーマ）ユニセックス プーマ スマッシュ バルク V3 ロー スニーカー商品情報コートの風格を、ストリートに。テニススタイルをルーツに持つスマッシュ バルク V3は、クラシックなシルエットと洗練されたラインが魅力の一足。バルカナイズド構造のソールが、ストリートでも映える存在感を演出します。SoftFoam+インソールが一歩ごとのクッション性を高め、快適な履き心地をキープ。PUMAのロゴやフォームストリップが、スポーティなアクセントに。特徴SoftFoam+：足を入れた瞬間から快適さが続く、PUMA独自のソフトクッションインソール。長時間の使用でも快適な履き心地をサポート詳細クラシックなダービー仕様のシューレースホール耐久性に優れたバルカナイズドラバーのミッドソールとアウトソールフィット感を高めるシューレース仕様シュータン部分にPUMAのNo.1ロゴを配置アッパー側面とソール部分にPUMAのNo.2ロゴを配置サイドにPUMAフォームストリップ型番：380752-23-23-c QP9077【採寸】サイズ:22.5,幅:9.5cm,ヒール高:2cm,重さ:-サイズ:23,幅:9.5cm,ヒール高:2cm,重さ:-サイズ:23.5,幅:9.5cm,ヒール高:2cm,重さ:-サイズ:24,幅:10cm,ヒール高:2cm,重さ:-サイズ:24.5,幅:10cm,ヒール高:2cm,重さ:-サイズ:25,幅:10cm,ヒール高:2cm,重さ:-サイズ:25.5,幅:10cm,ヒール高:2cm,重さ:-サイズ:26,幅:10cm,ヒール高:2cm,重さ:-サイズ:26.5,幅:10cm,ヒール高:2cm,重さ:-サイズ:27,幅:10.5cm,ヒール高:2cm,重さ:321gサイズ:27.5,幅:10.5cm,ヒール高:2cm,重さ:-サイズ:28,幅:10.5cm,ヒール高:2cm,重さ:-サイズ:28.5,幅:10.5cm,ヒール高:2cm,重さ:-サイズ:29,幅:10.5cm,ヒール高:2cm,重さ:-商品のサイズについて【商品詳細】中国素材：アッパー:人工皮革,アウトソール:ゴム底サイズ：22.5、23、23.5、24、24.5、25、25.5、26、26.5、27、27.5、28、28.5、29※画面上と実物では多少色具合が異なって見える場合もございます。ご了承ください。商品のカラーについてPUMA（プーマ）ユニセックス プーマ スマッシュ バルク V3 ロー スニーカー商品情報コートの風格を、ストリートに。テニススタイルをルーツに持つスマッシュ バルク V3は、クラシックなシルエットと洗練されたラインが魅力の一足。バルカナイズド構造のソールが、ストリートでも映える存在感を演出します。SoftFoam+インソールが一歩ごとのクッション性を高め、快適な履き心地をキープ。PUMAのロゴやフォームストリップが、スポーティなアクセントに。特徴SoftFoam+：足を入れた瞬間から快適さが続く、PUMA独自のソフトクッションインソール。長時間の使用でも快適な履き心地をサポート詳細クラシックなダービー仕様のシューレースホール耐久性に優れたバルカナイズドラバーのミッドソールとアウトソールフィット感を高めるシューレース仕様シュータン部分にPUMAのNo.1ロゴを配置アッパー側面とソール部分にPUMAのNo.2ロゴを配置サイドにPUMAフォームストリップ型番：380752-23-23-c QP9077【採寸】サイズ:22.5,幅:9.5cm,ヒール高:2cm,重さ:-サイズ:23,幅:9.5cm,ヒール高:2cm,重さ:-サイズ:23.5,幅:9.5cm,ヒール高:2cm,重さ:-サイズ:24,幅:10cm,ヒール高:2cm,重さ:-サイズ:24.5,幅:10cm,ヒール高:2cm,重さ:-サイズ:25,幅:10cm,ヒール高:2cm,重さ:-サイズ:25.5,幅:10cm,ヒール高:2cm,重さ:-サイズ:26,幅:10cm,ヒール高:2cm,重さ:-サイズ:26.5,幅:10cm,ヒール高:2cm,重さ:-サイズ:27,幅:10.5cm,ヒール高:2cm,重さ:321gサイズ:27.5,幅:10.5cm,ヒール高:2cm,重さ:-サイズ:28,幅:10.5cm,ヒール高:2cm,重さ:-サイズ:28.5,幅:10.5cm,ヒール高:2cm,重さ:-サイズ:29,幅:10.5cm,ヒール高:2cm,重さ:-商品のサイズについて【商品詳細】中国素材：アッパー:人工皮革,アウトソール:ゴム底サイズ：22.5、23、23.5、24、24.5、25、25.5、26、26.5、27、27.5、28、28.5、29※画面上と実物では多少色具合が異なって見える場合もございます。ご了承ください。商品のカラーについて","itemUrl":"https://item.rakuten.co.jp/stylife/qp9077/?rafcid=wsc_i_is_a803a0aa-c5bd-47bf-b10b-4b7f6308e509","shopUrl":"https://www.rakuten.co.jp/stylife/?rafcid=wsc_i_is_a803a0aa-c5bd-47bf-b10b-4b7f6308e509","smallImageUrls":["https://thumbnail.image.rakuten.co.jp/@0_mall/stylife/cabinet/item/077/qp9077-01_1.jpg?_ex=64x64","https://thumbnail.image.rakuten.co.jp/@0_mall/stylife/cabinet/item/077/qp9077-01_2.jpg?_ex=64x64","https://thumbnail.image.rakuten.co.jp/@0_mall/stylife/cabinet/item/077/qp9077-01_3.jpg?_ex=64x64"],"mediumImageUrls":["https://thumbnail.image.rakuten.co.jp/@0_mall/stylife/cabinet/item/077/qp9077-01_1.jpg?_ex=128x128","https://thumbnail.image.rakuten.co.jp/@0_mall/stylife/cabinet/item/077/qp9077-01_2.jpg?_ex=128x128","https://thumbnail.image.rakuten.co.jp/@0_mall/stylife/cabinet/item/077/qp9077-01_3.jpg?_ex=128x128"],"affiliateUrl":"","shopAffiliateUrl":"","imageFlag":1,"availability":1,"taxFlag":0,"postageFlag":0,"creditCardFlag":1,"shopOfTheYearFlag":0,"shipOverseasFlag":0,"shipOverseasArea":"","asurakuFlag":0,"asurakuClosingTime":"","asurakuArea":"","affiliateRate":4.0,"startTime":"","endTime":"","reviewCount":2,"reviewAverage":4.5,"pointRate":1,"pointRateStartTime":"","pointRateEndTime":"","giftFlag":0,"shopName":"Rakuten Fashion","shopCode":"stylife","genreId":"206878","tagIds":[1000794,1000886,1001317,1005535,1011173,1000545]}],"GenreInformation":[],"TagInformation":[]}